{
  "$schema": "../../../node_modules/@angular-devkit/schematics/collection-schema.json",
  "schematics": {
    "ng-add": {
      "description": "Add ngx-config-over-http to the project.",
      "factory": "./ng-add/index#ngAdd"
    }
  }
}
